{
  "/auth": {
    "target": "http://authproxy.szut.dev",
    "secure": false,
    "logLevel": "debug",
    "pathRewrite": {
      "^/auth": ""
    },
    "changeOrigin": true
  },

  "/backend": {
    "target": "http://localhost:8089",
    "secure": false,
    "logLevel": "debug",
    "pathRewrite": {
      "^/backend": ""
    },
    "changeOrigin": true
  }
}
